-- Merging decision tree log ---
manifest
ADDED from C:\Users\Conor\android-BluetoothLeGatt-master\Application\src\main\AndroidManifest.xml:20:1-50:12
	package
		ADDED from C:\Users\Conor\android-BluetoothLeGatt-master\Application\src\main\AndroidManifest.xml:21:5-50
	android:versionName
		ADDED from C:\Users\Conor\android-BluetoothLeGatt-master\Application\src\main\AndroidManifest.xml:23:5-30
		INJECTED from C:\Users\Conor\android-BluetoothLeGatt-master\Application\src\main\AndroidManifest.xml
		INJECTED from C:\Users\Conor\android-BluetoothLeGatt-master\Application\src\main\AndroidManifest.xml
	android:versionCode
		ADDED from C:\Users\Conor\android-BluetoothLeGatt-master\Application\src\main\AndroidManifest.xml:22:5-28
		INJECTED from C:\Users\Conor\android-BluetoothLeGatt-master\Application\src\main\AndroidManifest.xml
		INJECTED from C:\Users\Conor\android-BluetoothLeGatt-master\Application\src\main\AndroidManifest.xml
	xmlns:android
		ADDED from C:\Users\Conor\android-BluetoothLeGatt-master\Application\src\main\AndroidManifest.xml:20:11-69
uses-feature#android.hardware.bluetooth_le
ADDED from C:\Users\Conor\android-BluetoothLeGatt-master\Application\src\main\AndroidManifest.xml:31:5-89
	android:required
		ADDED from C:\Users\Conor\android-BluetoothLeGatt-master\Application\src\main\AndroidManifest.xml:31:64-87
	android:name
		ADDED from C:\Users\Conor\android-BluetoothLeGatt-master\Application\src\main\AndroidManifest.xml:31:19-63
uses-permission#android.permission.BLUETOOTH
ADDED from C:\Users\Conor\android-BluetoothLeGatt-master\Application\src\main\AndroidManifest.xml:33:5-67
	android:name
		ADDED from C:\Users\Conor\android-BluetoothLeGatt-master\Application\src\main\AndroidManifest.xml:33:22-65
uses-permission#android.permission.BLUETOOTH_ADMIN
ADDED from C:\Users\Conor\android-BluetoothLeGatt-master\Application\src\main\AndroidManifest.xml:34:5-73
	android:name
		ADDED from C:\Users\Conor\android-BluetoothLeGatt-master\Application\src\main\AndroidManifest.xml:34:22-71
application
ADDED from C:\Users\Conor\android-BluetoothLeGatt-master\Application\src\main\AndroidManifest.xml:36:5-48:19
MERGED from [com.android.support:support-v4:24.1.1] C:\Users\Conor\android-BluetoothLeGatt-master\Application\build\intermediates\exploded-aar\com.android.support\support-v4\24.1.1\AndroidManifest.xml:25:5-20
MERGED from [com.android.support:support-v13:24.1.1] C:\Users\Conor\android-BluetoothLeGatt-master\Application\build\intermediates\exploded-aar\com.android.support\support-v13\24.1.1\AndroidManifest.xml:25:5-20
MERGED from [com.android.support:support-v4:24.1.1] C:\Users\Conor\android-BluetoothLeGatt-master\Application\build\intermediates\exploded-aar\com.android.support\support-v4\24.1.1\AndroidManifest.xml:25:5-20
MERGED from [com.android.support:cardview-v7:24.1.1] C:\Users\Conor\android-BluetoothLeGatt-master\Application\build\intermediates\exploded-aar\com.android.support\cardview-v7\24.1.1\AndroidManifest.xml:22:5-20
MERGED from [com.android.support:appcompat-v7:24.1.1] C:\Users\Conor\android-BluetoothLeGatt-master\Application\build\intermediates\exploded-aar\com.android.support\appcompat-v7\24.1.1\AndroidManifest.xml:25:5-20
MERGED from [com.android.support:animated-vector-drawable:24.1.1] C:\Users\Conor\android-BluetoothLeGatt-master\Application\build\intermediates\exploded-aar\com.android.support\animated-vector-drawable\24.1.1\AndroidManifest.xml:22:5-20
MERGED from [com.android.support:support-vector-drawable:24.1.1] C:\Users\Conor\android-BluetoothLeGatt-master\Application\build\intermediates\exploded-aar\com.android.support\support-vector-drawable\24.1.1\AndroidManifest.xml:23:5-20
MERGED from [com.android.support:support-v4:24.1.1] C:\Users\Conor\android-BluetoothLeGatt-master\Application\build\intermediates\exploded-aar\com.android.support\support-v4\24.1.1\AndroidManifest.xml:25:5-20
MERGED from [com.android.support:support-v4:24.1.1] C:\Users\Conor\android-BluetoothLeGatt-master\Application\build\intermediates\exploded-aar\com.android.support\support-v4\24.1.1\AndroidManifest.xml:25:5-20
MERGED from [com.android.support:support-vector-drawable:24.1.1] C:\Users\Conor\android-BluetoothLeGatt-master\Application\build\intermediates\exploded-aar\com.android.support\support-vector-drawable\24.1.1\AndroidManifest.xml:23:5-20
MERGED from [com.android.support:support-v4:24.1.1] C:\Users\Conor\android-BluetoothLeGatt-master\Application\build\intermediates\exploded-aar\com.android.support\support-v4\24.1.1\AndroidManifest.xml:25:5-20
	android:label
		ADDED from C:\Users\Conor\android-BluetoothLeGatt-master\Application\src\main\AndroidManifest.xml:36:18-50
	android:icon
		ADDED from C:\Users\Conor\android-BluetoothLeGatt-master\Application\src\main\AndroidManifest.xml:37:9-45
	android:theme
		ADDED from C:\Users\Conor\android-BluetoothLeGatt-master\Application\src\main\AndroidManifest.xml:38:9-37
activity#com.example.android.bluetoothlegatt.DeviceScanActivity
ADDED from C:\Users\Conor\android-BluetoothLeGatt-master\Application\src\main\AndroidManifest.xml:39:9-45:20
	android:label
		ADDED from C:\Users\Conor\android-BluetoothLeGatt-master\Application\src\main\AndroidManifest.xml:40:13-45
	android:name
		ADDED from C:\Users\Conor\android-BluetoothLeGatt-master\Application\src\main\AndroidManifest.xml:39:19-53
intent-filter#android.intent.action.MAIN+android.intent.category.LAUNCHER
ADDED from C:\Users\Conor\android-BluetoothLeGatt-master\Application\src\main\AndroidManifest.xml:41:13-44:29
action#android.intent.action.MAIN
ADDED from C:\Users\Conor\android-BluetoothLeGatt-master\Application\src\main\AndroidManifest.xml:42:17-68
	android:name
		ADDED from C:\Users\Conor\android-BluetoothLeGatt-master\Application\src\main\AndroidManifest.xml:42:25-66
category#android.intent.category.LAUNCHER
ADDED from C:\Users\Conor\android-BluetoothLeGatt-master\Application\src\main\AndroidManifest.xml:43:17-76
	android:name
		ADDED from C:\Users\Conor\android-BluetoothLeGatt-master\Application\src\main\AndroidManifest.xml:43:27-74
activity#com.example.android.bluetoothlegatt.DeviceControlActivity
ADDED from C:\Users\Conor\android-BluetoothLeGatt-master\Application\src\main\AndroidManifest.xml:46:9-58
	android:name
		ADDED from C:\Users\Conor\android-BluetoothLeGatt-master\Application\src\main\AndroidManifest.xml:46:19-56
service#com.example.android.bluetoothlegatt.BluetoothLeService
ADDED from C:\Users\Conor\android-BluetoothLeGatt-master\Application\src\main\AndroidManifest.xml:47:9-77
	android:enabled
		ADDED from C:\Users\Conor\android-BluetoothLeGatt-master\Application\src\main\AndroidManifest.xml:47:53-75
	android:name
		ADDED from C:\Users\Conor\android-BluetoothLeGatt-master\Application\src\main\AndroidManifest.xml:47:18-52
uses-sdk
INJECTED from C:\Users\Conor\android-BluetoothLeGatt-master\Application\src\main\AndroidManifest.xml reason: use-sdk injection requested
MERGED from [com.android.support:support-v4:24.1.1] C:\Users\Conor\android-BluetoothLeGatt-master\Application\build\intermediates\exploded-aar\com.android.support\support-v4\24.1.1\AndroidManifest.xml:21:5-23:54
MERGED from [com.android.support:support-v13:24.1.1] C:\Users\Conor\android-BluetoothLeGatt-master\Application\build\intermediates\exploded-aar\com.android.support\support-v13\24.1.1\AndroidManifest.xml:21:5-23:55
MERGED from [com.android.support:support-v4:24.1.1] C:\Users\Conor\android-BluetoothLeGatt-master\Application\build\intermediates\exploded-aar\com.android.support\support-v4\24.1.1\AndroidManifest.xml:21:5-23:54
MERGED from [com.android.support:cardview-v7:24.1.1] C:\Users\Conor\android-BluetoothLeGatt-master\Application\build\intermediates\exploded-aar\com.android.support\cardview-v7\24.1.1\AndroidManifest.xml:20:5-43
MERGED from [com.android.support:appcompat-v7:24.1.1] C:\Users\Conor\android-BluetoothLeGatt-master\Application\build\intermediates\exploded-aar\com.android.support\appcompat-v7\24.1.1\AndroidManifest.xml:21:5-23:78
MERGED from [com.android.support:animated-vector-drawable:24.1.1] C:\Users\Conor\android-BluetoothLeGatt-master\Application\build\intermediates\exploded-aar\com.android.support\animated-vector-drawable\24.1.1\AndroidManifest.xml:20:5-44
MERGED from [com.android.support:support-vector-drawable:24.1.1] C:\Users\Conor\android-BluetoothLeGatt-master\Application\build\intermediates\exploded-aar\com.android.support\support-vector-drawable\24.1.1\AndroidManifest.xml:21:5-43
MERGED from [com.android.support:support-v4:24.1.1] C:\Users\Conor\android-BluetoothLeGatt-master\Application\build\intermediates\exploded-aar\com.android.support\support-v4\24.1.1\AndroidManifest.xml:21:5-23:54
MERGED from [com.android.support:support-v4:24.1.1] C:\Users\Conor\android-BluetoothLeGatt-master\Application\build\intermediates\exploded-aar\com.android.support\support-v4\24.1.1\AndroidManifest.xml:21:5-23:54
MERGED from [com.android.support:support-vector-drawable:24.1.1] C:\Users\Conor\android-BluetoothLeGatt-master\Application\build\intermediates\exploded-aar\com.android.support\support-vector-drawable\24.1.1\AndroidManifest.xml:21:5-43
MERGED from [com.android.support:support-v4:24.1.1] C:\Users\Conor\android-BluetoothLeGatt-master\Application\build\intermediates\exploded-aar\com.android.support\support-v4\24.1.1\AndroidManifest.xml:21:5-23:54
	tools:overrideLibrary
		ADDED from [com.android.support:support-v4:24.1.1] C:\Users\Conor\android-BluetoothLeGatt-master\Application\build\intermediates\exploded-aar\com.android.support\support-v4\24.1.1\AndroidManifest.xml:23:9-51
	android:targetSdkVersion
		INJECTED from C:\Users\Conor\android-BluetoothLeGatt-master\Application\src\main\AndroidManifest.xml
		INJECTED from C:\Users\Conor\android-BluetoothLeGatt-master\Application\src\main\AndroidManifest.xml
	android:minSdkVersion
		INJECTED from C:\Users\Conor\android-BluetoothLeGatt-master\Application\src\main\AndroidManifest.xml
		INJECTED from C:\Users\Conor\android-BluetoothLeGatt-master\Application\src\main\AndroidManifest.xml
